{
  "configVersion": 2,
  "packages": [
    {
      "name": "async",
      "rootUri": "file:///C:/fluttersdk/flutter/.pub-cache/hosted/pub.dartlang.org/async-2.5.0",
      "packageUri": "lib/",
      "languageVersion": "2.12"
    },
    {
      "name": "boolean_selector",
      "rootUri": "file:///C:/fluttersdk/flutter/.pub-cache/hosted/pub.dartlang.org/boolean_selector-2.1.0",
      "packageUri": "lib/",
      "languageVersion": "2.12"
    },
    {
      "name": "characters",
      "rootUri": "file:///C:/fluttersdk/flutter/.pub-cache/hosted/pub.dartlang.org/characters-1.1.0",
      "packageUri": "lib/",
      "languageVersion": "2.12"
    },
    {
      "name": "charcode",
      "rootUri": "file:///C:/fluttersdk/flutter/.pub-cache/hosted/pub.dartlang.org/charcode-1.2.0",
      "packageUri": "lib/",
      "languageVersion": "2.12"
    },
    {
      "name": "clock",
      "rootUri": "file:///C:/fluttersdk/flutter/.pub-cache/hosted/pub.dartlang.org/clock-1.1.0",
      "packageUri": "lib/",
      "languageVersion": "2.12"
    },
    {
      "name": "collection",
      "rootUri": "file:///C:/fluttersdk/flutter/.pub-cache/hosted/pub.dartlang.org/collection-1.15.0",
      "packageUri": "lib/",
      "languageVersion": "2.12"
    },
    {
      "name": "cupertino_icons",
      "rootUri": "file:///C:/fluttersdk/flutter/.pub-cache/hosted/pub.dartlang.org/cupertino_icons-1.0.3",
      "packageUri": "lib/",
      "languageVersion": "2.12"
    },
    {
      "name": "fake_async",
      "rootUri": "file:///C:/fluttersdk/flutter/.pub-cache/hosted/pub.dartlang.org/fake_async-1.2.0",
      "packageUri": "lib/",
      "languageVersion": "2.12"
    },
    {
      "name": "ffi",
      "rootUri": "file:///C:/fluttersdk/flutter/.pub-cache/hosted/pub.dartlang.org/ffi-1.1.2",
      "packageUri": "lib/",
      "languageVersion": "2.12"
    },
    {
      "name": "file",
      "rootUri": "file:///C:/fluttersdk/flutter/.pub-cache/hosted/pub.dartlang.org/file-6.1.2",
      "packageUri": "lib/",
      "languageVersion": "2.12"
    },
    {
      "name": "flutter",
      "rootUri": "file:///C:/fluttersdk/flutter/packages/flutter",
      "packageUri": "lib/",
      "languageVersion": "2.12"
    },
    {
      "name": "flutter_test",
      "rootUri": "file:///C:/fluttersdk/flutter/packages/flutter_test",
      "packageUri": "lib/",
      "languageVersion": "2.12"
    },
    {
      "name": "flutter_web_plugins",
      "rootUri": "file:///C:/fluttersdk/flutter/packages/flutter_web_plugins",
      "packageUri": "lib/",
      "languageVersion": "2.12"
    },
    {
      "name": "fluttertoast",
      "rootUri": "file:///C:/fluttersdk/flutter/.pub-cache/hosted/pub.dartlang.org/fluttertoast-8.0.7",
      "packageUri": "lib/",
      "languageVersion": "2.12"
    },
    {
      "name": "js",
      "rootUri": "file:///C:/fluttersdk/flutter/.pub-cache/hosted/pub.dartlang.org/js-0.6.3",
      "packageUri": "lib/",
      "languageVersion": "2.12"
    },
    {
      "name": "matcher",
      "rootUri": "file:///C:/fluttersdk/flutter/.pub-cache/hosted/pub.dartlang.org/matcher-0.12.10",
      "packageUri": "lib/",
      "languageVersion": "2.12"
    },
    {
      "name": "meta",
      "rootUri": "file:///C:/fluttersdk/flutter/.pub-cache/hosted/pub.dartlang.org/meta-1.3.0",
      "packageUri": "lib/",
      "languageVersion": "2.12"
    },
    {
      "name": "nested",
      "rootUri": "file:///C:/fluttersdk/flutter/.pub-cache/hosted/pub.dartlang.org/nested-1.0.0",
      "packageUri": "lib/",
      "languageVersion": "2.12"
    },
    {
      "name": "path",
      "rootUri": "file:///C:/fluttersdk/flutter/.pub-cache/hosted/pub.dartlang.org/path-1.8.0",
      "packageUri": "lib/",
      "languageVersion": "2.12"
    },
    {
      "name": "path_provider",
      "rootUri": "file:///C:/fluttersdk/flutter/.pub-cache/hosted/pub.dartlang.org/path_provider-2.0.2",
      "packageUri": "lib/",
      "languageVersion": "2.12"
    },
    {
      "name": "path_provider_linux",
      "rootUri": "file:///C:/fluttersdk/flutter/.pub-cache/hosted/pub.dartlang.org/path_provider_linux-2.0.0",
      "packageUri": "lib/",
      "languageVersion": "2.12"
    },
    {
      "name": "path_provider_macos",
      "rootUri": "file:///C:/fluttersdk/flutter/.pub-cache/hosted/pub.dartlang.org/path_provider_macos-2.0.0",
      "packageUri": "lib/",
      "languageVersion": "2.12"
    },
    {
      "name": "path_provider_platform_interface",
      "rootUri": "file:///C:/fluttersdk/flutter/.pub-cache/hosted/pub.dartlang.org/path_provider_platform_interface-2.0.1",
      "packageUri": "lib/",
      "languageVersion": "2.12"
    },
    {
      "name": "path_provider_windows",
      "rootUri": "file:///C:/fluttersdk/flutter/.pub-cache/hosted/pub.dartlang.org/path_provider_windows-2.0.1",
      "packageUri": "lib/",
      "languageVersion": "2.12"
    },
    {
      "name": "platform",
      "rootUri": "file:///C:/fluttersdk/flutter/.pub-cache/hosted/pub.dartlang.org/platform-3.0.0",
      "packageUri": "lib/",
      "languageVersion": "2.12"
    },
    {
      "name": "plugin_platform_interface",
      "rootUri": "file:///C:/fluttersdk/flutter/.pub-cache/hosted/pub.dartlang.org/plugin_platform_interface-2.0.1",
      "packageUri": "lib/",
      "languageVersion": "2.12"
    },
    {
      "name": "process",
      "rootUri": "file:///C:/fluttersdk/flutter/.pub-cache/hosted/pub.dartlang.org/process-4.2.1",
      "packageUri": "lib/",
      "languageVersion": "2.12"
    },
    {
      "name": "provider",
      "rootUri": "file:///C:/fluttersdk/flutter/.pub-cache/hosted/pub.dartlang.org/provider-5.0.0",
      "packageUri": "lib/",
      "languageVersion": "2.12"
    },
    {
<<<<<<< HEAD
      "name": "shared_preferences",
      "rootUri": "file:///C:/fluttersdk/flutter/.pub-cache/hosted/pub.dartlang.org/shared_preferences-2.0.6",
      "packageUri": "lib/",
      "languageVersion": "2.12"
    },
    {
      "name": "shared_preferences_linux",
      "rootUri": "file:///C:/fluttersdk/flutter/.pub-cache/hosted/pub.dartlang.org/shared_preferences_linux-2.0.0",
      "packageUri": "lib/",
      "languageVersion": "2.12"
    },
    {
      "name": "shared_preferences_macos",
      "rootUri": "file:///C:/fluttersdk/flutter/.pub-cache/hosted/pub.dartlang.org/shared_preferences_macos-2.0.0",
      "packageUri": "lib/",
      "languageVersion": "2.12"
    },
    {
      "name": "shared_preferences_platform_interface",
      "rootUri": "file:///C:/fluttersdk/flutter/.pub-cache/hosted/pub.dartlang.org/shared_preferences_platform_interface-2.0.0",
      "packageUri": "lib/",
      "languageVersion": "2.12"
    },
    {
      "name": "shared_preferences_web",
      "rootUri": "file:///C:/fluttersdk/flutter/.pub-cache/hosted/pub.dartlang.org/shared_preferences_web-2.0.0",
      "packageUri": "lib/",
      "languageVersion": "2.12"
    },
    {
      "name": "shared_preferences_windows",
      "rootUri": "file:///C:/fluttersdk/flutter/.pub-cache/hosted/pub.dartlang.org/shared_preferences_windows-2.0.0",
      "packageUri": "lib/",
      "languageVersion": "2.12"
    },
    {
=======
>>>>>>> 779a95455e5328daf7a3e736aae0fd1851671998
      "name": "sky_engine",
      "rootUri": "file:///C:/fluttersdk/flutter/bin/cache/pkg/sky_engine",
      "packageUri": "lib/",
      "languageVersion": "2.12"
    },
    {
      "name": "source_span",
      "rootUri": "file:///C:/fluttersdk/flutter/.pub-cache/hosted/pub.dartlang.org/source_span-1.8.0",
      "packageUri": "lib/",
      "languageVersion": "2.12"
    },
    {
      "name": "sqflite",
      "rootUri": "file:///C:/fluttersdk/flutter/.pub-cache/hosted/pub.dartlang.org/sqflite-2.0.0+3",
      "packageUri": "lib/",
      "languageVersion": "2.12"
    },
    {
      "name": "sqflite_common",
      "rootUri": "file:///C:/fluttersdk/flutter/.pub-cache/hosted/pub.dartlang.org/sqflite_common-2.0.0+2",
      "packageUri": "lib/",
      "languageVersion": "2.12"
    },
    {
      "name": "stack_trace",
      "rootUri": "file:///C:/fluttersdk/flutter/.pub-cache/hosted/pub.dartlang.org/stack_trace-1.10.0",
      "packageUri": "lib/",
      "languageVersion": "2.12"
    },
    {
      "name": "stream_channel",
      "rootUri": "file:///C:/fluttersdk/flutter/.pub-cache/hosted/pub.dartlang.org/stream_channel-2.1.0",
      "packageUri": "lib/",
      "languageVersion": "2.12"
    },
    {
      "name": "string_scanner",
      "rootUri": "file:///C:/fluttersdk/flutter/.pub-cache/hosted/pub.dartlang.org/string_scanner-1.1.0",
      "packageUri": "lib/",
      "languageVersion": "2.12"
    },
    {
      "name": "synchronized",
      "rootUri": "file:///C:/fluttersdk/flutter/.pub-cache/hosted/pub.dartlang.org/synchronized-3.0.0",
      "packageUri": "lib/",
      "languageVersion": "2.12"
    },
    {
      "name": "term_glyph",
      "rootUri": "file:///C:/fluttersdk/flutter/.pub-cache/hosted/pub.dartlang.org/term_glyph-1.2.0",
      "packageUri": "lib/",
      "languageVersion": "2.12"
    },
    {
      "name": "test_api",
      "rootUri": "file:///C:/fluttersdk/flutter/.pub-cache/hosted/pub.dartlang.org/test_api-0.2.19",
      "packageUri": "lib/",
      "languageVersion": "2.12"
    },
    {
      "name": "typed_data",
      "rootUri": "file:///C:/fluttersdk/flutter/.pub-cache/hosted/pub.dartlang.org/typed_data-1.3.0",
      "packageUri": "lib/",
      "languageVersion": "2.12"
    },
    {
      "name": "vector_math",
      "rootUri": "file:///C:/fluttersdk/flutter/.pub-cache/hosted/pub.dartlang.org/vector_math-2.1.0",
      "packageUri": "lib/",
      "languageVersion": "2.12"
    },
    {
      "name": "win32",
      "rootUri": "file:///C:/fluttersdk/flutter/.pub-cache/hosted/pub.dartlang.org/win32-2.0.5",
      "packageUri": "lib/",
      "languageVersion": "2.12"
    },
    {
      "name": "xdg_directories",
      "rootUri": "file:///C:/fluttersdk/flutter/.pub-cache/hosted/pub.dartlang.org/xdg_directories-0.2.0",
      "packageUri": "lib/",
      "languageVersion": "2.12"
    },
    {
      "name": "notebook",
      "rootUri": "../",
      "packageUri": "lib/",
      "languageVersion": "2.7"
    }
  ],
<<<<<<< HEAD
  "generated": "2021-07-25T16:33:56.327292Z",
=======
  "generated": "2021-07-18T10:50:08.243027Z",
>>>>>>> 779a95455e5328daf7a3e736aae0fd1851671998
  "generator": "pub",
  "generatorVersion": "2.12.3"
}
